{
  "project_info": {
    "project_number": "150531650972",
    "firebase_url": "https://quickresponse-c1fdd.firebaseio.com",
    "project_id": "quickresponse-c1fdd",
    "storage_bucket": "quickresponse-c1fdd.appspot.com"
  },
  "client": [
    {
      "client_info": {
        "mobilesdk_app_id": "1:150531650972:android:c3d13fcba6cc41c1",
        "android_client_info": {
          "package_name": "com.ics.personil"
        }
      },
      "oauth_client": [
        {
          "client_id": "150531650972-5g4o3cvalov6hl4vtbi1uabf6kb5er2c.apps.googleusercontent.com",
          "client_type": 3
        }
      ],
      "api_key": [
        {
          "current_key": "AIzaSyBUuf5pZ1XcyMkCRS_pf84jRHixxStVMZI"
        }
      ],
      "services": {
        "analytics_service": {
          "status": 1
        },
        "appinvite_service": {
          "status": 1,
          "other_platform_oauth_client": []
        },
        "ads_service": {
          "status": 2
        }
      }
    },
    {
      "client_info": {
        "mobilesdk_app_id": "1:150531650972:android:7f2a53febe7614c7",
        "android_client_info": {
          "package_name": "com.ics.emergencybutton"
        }
      },
      "oauth_client": [
        {
          "client_id": "150531650972-5g4o3cvalov6hl4vtbi1uabf6kb5er2c.apps.googleusercontent.com",
          "client_type": 3
        }
      ],
      "api_key": [
        {
          "current_key": "AIzaSyBUuf5pZ1XcyMkCRS_pf84jRHixxStVMZI"
        }
      ],
      "services": {
        "analytics_service": {
          "status": 1
        },
        "appinvite_service": {
          "status": 1,
          "other_platform_oauth_client": []
        },
        "ads_service": {
          "status": 2
        }
      }
    }
  ],
  "configuration_version": "1"
}